Water Resources in Copenhagen during 20th century - 01
…
suburbs$id

 [1]  3  7  8 10  6  5  4  1  9  2

Attribute data

Next lets bring in the attribute data. I read the data from a google sheet where my colleagues and I can edit it. You can load it from there if you have a googlesheets4 package installed, or you can use the read_csv() function to read the wc.csv provided in the data folder

# Uncomment the lines below to read data from GDrive wc <-
# read_sheet('https://docs.google.com/spreadsheets/d/1iFvycp6M6bF8GBkGjA2Yde2yCIhiy5_slAkGF-RUF7w/edit#gid=0',
# col_types = 'cnnnnnnnn') write_csv(wc, 'data/wc.csv')
wc <- read_csv("data/wc.csv")
wc

# A tibble: 100 x 9
   Suburb suburb_id flats wc_access  bath  year bath_communal_ct wc_communal_ct
   <chr>      <dbl> <dbl>     <dbl> <dbl> <dbl>            <dbl>          <dbl>
 1 Indre~         1 16280     11310  3800  1950               NA             NA
 2 Chris~         1  5490      3900   900  1950               NA             NA
 3 Voldk~         1 13460     12690  4560  1950               NA             NA
 4 ster~         2 30820     28900 13750  1950               NA             NA
 5 Indre~         3 28700     24380  5910  1950               NA             NA
 6 Ydre ~         3 21710     20410  5800  1950               NA             NA
 7 Veste~         4 25850     23930  3730  1950               NA             NA
 8 Konge~         4  6270      6240  4240  1950               NA             NA
 9 Valby          5 14430     13970  8190  1950               NA             NA
10 Viger~         5  7700      7580  5050  1950               NA             NA
# ... with 90 more rows, and 1 more variable: hot_water <dbl>

Spatial resolution adjustment - data aggregation

Data on access to hygienic facilities and other water resources in Copenhagen now looks good and tidy, but its spatial resolution is higher than the provided polygons (as in we have multiple rows that all fit within one suburb id). We therefore use the group_by() function to aggregate the data by id before we continue with any spatial operations. Given that the dataset is in fact a time-series, and each kvarter has a record for a given year or decade, we need to group first by the year and then only by id.

While aggregating the finer scale data into larger units, it is convenient to generate some statistics, such as percentages of flats that have bath and wc and hot water access within each suburb. We do this using the summarize() function below.

wcdata <- wc %>% group_by(year, suburb_id) %>% summarize(flats = sum(flats), bath = sum(bath), 
    pct_bath = bath/flats * 100, wc_access = sum(wc_access), pct_wc = wc_access/flats * 
        100, warmH20 = sum(hot_water), pct_wH20 = warmH20/flats * 100, communal_wc = sum(wc_communal_ct), 
    communal_bath = sum(bath_communal_ct))
wcdata

# A tibble: 50 x 11
# Groups:   year [5]
    year suburb_id flats  bath pct_bath wc_access pct_wc warmH20 pct_wH20
   <dbl>     <dbl> <dbl> <dbl>    <dbl>     <dbl>  <dbl>   <dbl>    <dbl>
 1  1950         1 35230  9260     26.3     27900   79.2    8530     24.2
 2  1950         2 30820 13750     44.6     28900   93.8   10750     34.9
 3  1950         3 50410 11710     23.2     44790   88.9    8810     17.5
 4  1950         4 32120  7970     24.8     30170   93.9    6110     19.0
 5  1950         5 22130 13240     59.8     21550   97.4   10830     48.9
 6  1950         6 10260  6780     66.1     10120   98.6    6270     61.1
 7  1950         7 27260 14790     54.3     26770   98.2   13280     48.7
 8  1950         8 19270 15000     77.8     18980   98.5   14690     76.2
 9  1950         9 23960 12470     52.0     22950   95.8   11210     46.8
10  1950        10 18000  9030     50.2     16200   90      7800     43.3
# ... with 40 more rows, and 2 more variables: communal_wc <dbl>,
#   communal_bath <dbl>
…
